{
  "variables": {
    "version": ""
  },
  "provisioners": [
    {
      "type": "shell",
      "execute_command": "echo 'vagrant' | {{.Vars}} sudo -S -E bash '{{.Path}}'",
      "script": "scripts/configure_vm.sh"
    }
  ],
  "builders": [
    {
      "type": "virtualbox-iso",
      "boot_command": [
        "<tab> text ks=http://{{ .HTTPIP }}:{{ .HTTPPort }}/ks.cfg<enter><wait>"
      ],
      "boot_wait": "10s",
      "disk_size": 350000,
      "guest_os_type": "RedHat_64",
      "headless": true,
      "http_directory": "http",
      "iso_urls": [
        "CentOS-7-x86_64-Minimal-1804.iso"
      ],
      "iso_checksum_type": "sha256",
      "iso_checksum": "714acc0aefb32b7d51b515e25546835e55a90da9fb00417fbee2d03a62801efd",
      "ssh_username": "vagrant",
      "ssh_password": "vagrant",
      "ssh_port": 22,
      "ssh_wait_timeout": "10000s",
      "shutdown_command": "echo 'vagrant'|sudo -S /sbin/halt -h -p",
      "guest_additions_path": "VBoxGuestAdditions_{{.Version}}.iso",
      "virtualbox_version_file": ".vbox_version",
      "vm_name": "packer-centos-7-x86_64",
      "vboxmanage": [
        [
          "modifyvm",
          "{{.Name}}",
          "--memory",
          "1024"
        ],
        [
          "modifyvm",
          "{{.Name}}",
          "--cpus",
          "2"
        ]
      ]
    }
  ],
  "post-processors": [
    [
      {
        "output": "builds/{{.Provider}}-centos7.box",
        "type": "vagrant"
      },
      {
        "access_token": "DIaJ5nCvYgn9Sw.atlasv1.pr4aDK1HZ7wt4WbIfzD2ti5yVeK8Gtt8TiwLcaSWpFJ7KzWrwkfp3YyeYrj2sw1dmEE",
        "type": "vagrant-cloud",
        "box_tag": "sohaibazed/centos7",
        "version": "{{user `version`}}"
      }
    ]
  ]
}
